#217 - Madrid

owner = A13
controller = A13
add_core = A13
culture = gawedi
religion = regent_court

hre = no

base_tax = 4
base_production = 3
base_manpower = 3

trade_goods = wool

capital = ""

is_city = yes


latent_trade_goods = {
	coal
}








