owner = G88
controller = G88
add_core = G88
tribal_owner = G88
culture = doos
religion = animism
capital = ""

hre = no

base_tax = 2
base_production = 1
base_manpower = 2

trade_goods = slaves

center_of_trade = 1