# No previous file for Chernigov
owner = A33
controller = A33
add_core = A33
culture = vernman
religion = regent_court

hre = yes

base_tax = 5
base_production = 4
base_manpower = 3

trade_goods = cloth

capital = ""

is_city = yes






