#415 - Lockcastle

owner = A48
controller = A48
add_core = A48
culture = wexonard
religion = regent_court

hre = yes

base_tax = 4
base_production = 4
base_manpower = 3

trade_goods = livestock

capital = ""

is_city = yes











