#491 - Curacao

owner = U02
controller = U02
add_core = U02
add_core = U01
culture = kheteratan
religion = khetist

hre = no

base_tax = 1
base_production = 2
base_manpower = 2

trade_goods = ivory

capital = ""

is_city = yes










