#532 - Nisabat

owner = U15
controller = U15
add_core = U15
add_core = F22
culture = bahari
religion = bulwari_sun_cult

base_tax = 4
base_production = 4
base_manpower = 3

trade_goods = grain

capital = ""

is_city = yes











add_permanent_province_modifier = {
	name = elven_minority_coexisting_large
	duration = -1
}