# No previous file for Vientiane
owner = F42
controller = F42
add_core = F42
culture = sun_elf
religion = bulwari_sun_cult

hre = no

base_tax = 4
base_production = 4
base_manpower = 3

trade_goods = wine

capital = ""

is_city = yes











add_permanent_province_modifier = {
	name = human_minority_coexisting_large
	duration = -1
}
