# No previous file for Arkansas
owner = B36
controller = B36
add_core = B36
culture = marrodic
religion = regent_court

hre = no

base_tax = 2
base_production = 2
base_manpower = 3

trade_goods = wool
center_of_trade = 1

capital = ""

is_city = yes






