country_decisions = {

	cast_siege_magic = {
	
		major = yes
		
		potential = {
			ruler_has_mage_personality = yes
		}
		allow = {
			any_province = {	#does work
				#limit = {
					sieged_by = ROOT
					unit_has_leader = yes
					fort_level = 1
					num_of_units_in_province = {
						who = ROOT
						amount = 1
					}
				#}
			}
			NOT = {
				has_ruler_modifier = ruler_recently_casted_spell
			}
			NOT = { has_ruler_flag = magic_menu_opened }
			#NOT = { has_ruler_modifier = magic_siege_menu_cooldown }
			is_lesser_in_union = no
		}
		effect = {
			country_event = { id = magic_siege.1 days = 0 }
			open_single_menu = yes	#prevents people from opening the menu multiple times
		}
		ai_will_do = {
			factor = 1
			modifier = {
				factor = 0
				OR = {
					NOT = { adm_power = 20 }
					NOT = { dip_power = 20 }
					NOT = { mil_power = 20 }
				}
			}
		}
	}
	
	
	# cast_battle_magic = {
	
		# major = yes
		
		# potential = {
			# #ruler_has_mage_personality = yes #disabling this cos it doesnt work
		# }
		# allow = {
			# any_province = {	#does work
				# #limit = {
					# unit_has_leader = yes
					# unit_in_battle = yes
					# num_of_units_in_province = {
						# who = ROOT
						# amount = 1
					# }
				# #}
			# }
			# NOT = {
				# has_ruler_modifier = ruler_recently_casted_spell
			# }
		# }
		# effect = {
			# country_event = { id = magic_battle.1 days = 0 }
		# }
		# ai_will_do = {
			# factor = 1
			# modifier = {
				# factor = 0
				# OR = {
					# NOT = { adm_power = 20 }
					# NOT = { dip_power = 20 }
					# NOT = { mil_power = 20 }
				# }
			# }
		# }
	# }
	
	
	cast_realm_magic = {
	
		major = yes
		
		potential = {
			ruler_has_mage_personality = yes
		}
		allow = {
			NOT = {
				has_ruler_modifier = ruler_recently_casted_spell
			}
			NOT = { has_ruler_flag = magic_menu_opened }
			NOT = { has_ruler_modifier = magic_realm_menu_cooldown }
			is_lesser_in_union = no
		}
		effect = {
			country_event = { id = magic_realm.0 days = 0 }
			open_single_menu = yes	#prevents people from opening the menu multiple times
			#Allows for vampires that become mages naturally
			hidden_effect = {
				if = { 
					limit = { has_ruler_flag = is_a_vampire }
					set_country_flag = mage_vampire
				}
			}
		}
		ai_will_do = {
			factor = 1
			modifier = {
				factor = 0
				OR = {
					NOT = { adm_power = 100 }
					NOT = { dip_power = 100 }
					NOT = { mil_power = 100 }
				}
			}
			modifier = {
				factor = 0
				NOT = { has_ruler_flag = abjuration_1 }
				NOT = { has_ruler_flag = conjuration_1 }
				NOT = { has_ruler_flag = divination_1 }
				NOT = { has_ruler_flag = illusion_1 }
				NOT = { has_ruler_flag = enchantment_1 }
				NOT = { has_ruler_flag = evocation_1 }
				NOT = { has_ruler_flag = necromancy_1 }
				NOT = { has_ruler_flag = transmutation_1 }
			}
		}
	}
	
	
	study_magic = {
	
		major = yes
		
		potential = {
			ruler_has_mage_personality = yes
			NOT = { has_ruler_flag = magic_menu_opened }
			NOT = { has_ruler_modifier = magic_study_menu_cooldown }
		}
		allow = {
				NOT = { has_ruler_modifier = ruler_studying_magic }
				custom_trigger_tooltip = {
					tooltip = ruler_not_studying_magic_tooltip
					NOT = { has_ruler_flag = ruler_studying_abjuration } 
					NOT = { has_ruler_flag = ruler_studying_conjuration } 
					NOT = { has_ruler_flag = ruler_studying_divination } 
					NOT = { has_ruler_flag = ruler_studying_enchantment } 
					NOT = { has_ruler_flag = ruler_studying_evocation } 
					NOT = { has_ruler_flag = ruler_studying_illusion } 
					NOT = { has_ruler_flag = ruler_studying_necromancy } 
					NOT = { has_ruler_flag = ruler_studying_transmutation }
				}
				is_lesser_in_union = no
		}
		effect = {
			country_event = { id = magic_study.0 days = 0 }
			open_single_menu = yes	#prevents people from opening the menu multiple times
		}
		ai_will_do = {
			factor = 1
			modifier = {
				factor = 0
				OR = { 
					NOT = { adm_power = 50 }
					NOT = { dip_power = 50 }
					NOT = { mil_power = 50 }
				}
			}
		}
	}
	
	make_ruler_general = {
	
		major = yes
		
		potential = {
			ruler_has_mage_personality = yes
			is_monarch_leader = no
			has_consort_regency = no
			is_lesser_in_union = no
			has_regency = no
		}
		allow = {
			is_monarch_leader = no
			has_consort_regency = no
			has_regency = no
		}
		effect = {
			custom_tooltip = make_ruler_general_tooltip
			hidden_effect = {
				if = {
					limit = {
						mil = 0
						NOT = { mil = 1 }
					}
					define_ruler_to_general = {
						fire = 1
						shock = 6
						manuever = 0
						siege = 3
						#
					}
					if = {
						limit = {
							is_female = yes
							NOT = { is_monarch_leader = yes }
						}
						convert_female_ruler_to_general = yes
					}
				}
				else_if = {
					limit = {
						mil = 1
						NOT = { mil = 2 }
					}
					define_ruler_to_general = {
						fire = 2
						shock = 7
						manuever = 0
						siege = 3
					}
					if = {
						limit = {
							is_female = yes
							NOT = { is_monarch_leader = yes }
						}
						convert_female_ruler_to_general = yes
					}
				}
				else_if = {
					limit = {
						mil = 2
						NOT = { mil = 3 }
					}
					define_ruler_to_general = {
						fire = 2
						shock = 7
						manuever = 1
						siege = 4
						#
					}
					if = {
						limit = {
							is_female = yes
							NOT = { is_monarch_leader = yes }
						}
						convert_female_ruler_to_general = yes
					}
				}
				else_if = {
					limit = {
						mil = 3
						NOT = { mil = 4 }
					}
					define_ruler_to_general = {
						fire = 2
						shock = 8
						manuever = 1
						siege = 5
					}
					if = {
						limit = {
							is_female = yes
							NOT = { is_monarch_leader = yes }
						}
						convert_female_ruler_to_general = yes
					}
				}
				else_if = {
					limit = {
						mil = 4
						NOT = { mil = 5 }
					}
					define_ruler_to_general = {
						fire = 3
						shock = 9
						manuever = 1
						siege = 6
						#
					}
					if = {
						limit = {
							is_female = yes
							NOT = { is_monarch_leader = yes }
						}
						convert_female_ruler_to_general = yes
					}
				}
				else_if = {
					limit = {
						mil = 5
						NOT = { mil = 6 }
					}
					define_ruler_to_general = {
						fire = 3
						shock = 10
						manuever = 2
						siege = 7
						#
					}
					if = {
						limit = {
							is_female = yes
							NOT = { is_monarch_leader = yes }
						}
						convert_female_ruler_to_general = yes
					}
				}
				else_if = {
					limit = {
						mil = 6
					}
					define_ruler_to_general = {
						fire = 4
						shock = 11
						manuever = 3
						siege = 8
					}
					if = {
						limit = {
							is_female = yes
							NOT = { is_monarch_leader = yes }
						}
						convert_female_ruler_to_general = yes
					}
				}
				else = {
					convert_ruler_to_general = yes
					convert_female_ruler_to_general = yes
				}
			}
		}
		ai_will_do = {
			factor = 1
			
			modifier = {
				factor = 0
				NOT = { war_score = -15 }
			}
		}
		ai_importance = 400
	}
}