country_decisions = {
	
	start_demonsterization = {
		potential = {
			has_country_modifier = monstrous_nation
			NOT = { has_country_flag = removing_monstrous }
			NOT = { has_country_flag = no_longer_monstrous }
		}
		allow = {
			#NOT = { current_age = age_of_discovery }
			adm_tech = 7
			stability = 1

			any_known_country = {
				NOT = { has_country_modifier = monstrous_nation }
			}
		}
		effect = {
			if = {
				limit = { ai = no }
				add_stability = -1
			}
			hidden_effect = { set_country_flag = removing_monstrous }
			hidden_effect = { 
				if = {
					limit = { has_country_flag = semi_monstrous }
					set_variable = { monstrousPoints = 50 }
				}
				else = { set_variable = { monstrousPoints = 100 } }
			}

			custom_tooltip = start_demonsterization
		}
		ai_will_do = { 
			factor = 400 
			modifier = {
				factor = 0
				OR = {
					ruler_has_personality = cruel_personality
					ruler_has_personality = malevolent_personality
					ruler_has_personality = zealot_personality
					NOT = { want_to_decrease_monstrous = yes }
				}
			}
		}
	}
	
	current_monstrous_level = {
		potential = {
			ai = no
			has_country_modifier = monstrous_nation
			has_country_flag = removing_monstrous
		}
		
		allow = {
			always = no
		}
		
		effect = {
			custom_tooltip = current_monstrous_level_tooltip
		}
	}
}